<?xml version="1.0" encoding="UTF-8" standalone="no"?>
<svg
   xmlns:dc="http://purl.org/dc/elements/1.1/"
   xmlns:cc="http://creativecommons.org/ns#"
   xmlns:rdf="http://www.w3.org/1999/02/22-rdf-syntax-ns#"
   xmlns:svg="http://www.w3.org/2000/svg"
   xmlns="http://www.w3.org/2000/svg"
   viewBox="0 0 793.70081 559.37012"
   height="559.37012"
   width="793.70081"
   xml:space="preserve"
   id="svg2"
   version="1.1"><metadata
     id="metadata8"><rdf:RDF><cc:Work
         rdf:about=""><dc:format>image/svg+xml</dc:format><dc:type
           rdf:resource="http://purl.org/dc/dcmitype/StillImage" /></cc:Work></rdf:RDF></metadata><defs
     id="defs6" /><g
     transform="matrix(1.3333333,0,0,-1.3333333,0,559.37013)"
     id="g10"><g
       id="g12"><path
         id="path14"
         style="fill:#231f20;fill-opacity:1;fill-rule:nonzero;stroke:none"
         d="m 68.684,138.2522 h 27.4179 v 58.5102 c 0,8.7625 0.8478,17.5249 3.3919,25.7219 6.501,21.1994 22.6125,33.6364 40.1374,33.6364 4.2398,0 7.9144,-0.8481 7.9144,-0.8481 v 27.1352 c 0,0 -3.392,0.5652 -7.0665,0.5652 -22.0473,0 -38.7241,-16.3941 -45.2254,-37.3107 h -0.5652 c 0,0 0.5652,4.8053 0.5652,10.741 v 24.8738 H 68.684 Z m 105.7142,171.5734 h 27.7004 v 27.9831 h -27.7004 z m 0.2826,-171.5734 h 27.4178 v 143.0249 h -27.4178 z m 70.382,-56.5316 h 27.4178 v 64.1633 c 0,7.3491 -0.5652,12.437 -0.5652,12.437 h 0.5652 c 0,0 12.437,-23.4606 43.812,-23.4606 37.3107,0 64.7286,29.3964 64.7286,74.9043 0,44.3775 -24.3085,74.9044 -62.75,74.9044 -35.8977,0 -48.0518,-26.0045 -48.0518,-26.0045 h -0.5655 c 0,0 0.5655,4.8053 0.5655,10.4585 v 12.1541 h -25.1566 z m 26.5697,127.4788 c 0,36.4629 19.7861,51.4437 41.2682,51.4437 23.7432,0 40.42,-20.0687 40.42,-51.1611 0,-32.5057 -18.6553,-51.1611 -41.2679,-51.1611 -26.2874,0 -40.4203,25.4393 -40.4203,50.8785" /><path
         id="path16"
         style="fill:#ed1c24;fill-opacity:1;fill-rule:nonzero;stroke:none"
         d="m 400.8073,179.803 c 0,-28.8312 23.178,-44.9427 48.8999,-44.9427 32.7883,0 44.0946,25.4392 43.812,25.4392 h 0.5652 c 0,0 -0.5652,-4.5224 -0.5652,-10.1755 v -11.8718 h 33.0709 V 228.42 c 0,36.4629 -22.0473,57.3797 -59.9235,57.3797 -34.2014,0 -56.5316,-17.8075 -56.5316,-17.8075 l 13.5677,-25.7218 c 0,0 18.938,13.8503 39.5719,13.8503 15.829,0 27.7008,-6.5012 27.7008,-25.4392 v -1.9786 h -4.8053 c -23.4607,0 -85.3628,-3.1093 -85.3628,-48.8999 z m 36.1803,1.696 c 0,20.0687 29.679,22.6125 48.0517,22.6125 h 6.2187 v -3.3919 c 0,-17.5247 -13.5678,-37.8763 -32.5057,-37.8763 -14.6983,0 -21.7647,9.0451 -21.7647,18.6557" /></g></g></svg>